<svg width="50" height="50" viewBox="0 0 50 50" fill="none" xmlns="http://www.w3.org/2000/svg">
<path d="M0 0H50V50H0V0Z" fill="white" fill-opacity="0.01"/>
<path d="M19.8292 45.8335C18.8085 42.5047 17.2686 40.0231 15.2095 38.3888C12.1209 35.9372 7.21339 37.4609 5.40063 34.9322C3.58787 32.4035 6.67067 27.7533 7.75246 25.0094C8.83425 22.2657 3.60605 21.2954 4.21644 20.5165C4.62338 19.9972 7.26535 18.4987 12.1424 16.021C13.5281 8.11821 18.6467 4.16684 27.4981 4.16684C40.7751 4.16684 45.8334 15.423 45.8334 22.5823C45.8334 29.7417 39.7085 37.4545 30.9835 39.1175C30.2033 40.2538 31.3286 42.4924 34.3592 45.8335" stroke="white" stroke-width="3" stroke-linecap="round" stroke-linejoin="round"/>
<path fill-rule="evenodd" clip-rule="evenodd" d="M20.3121 15.1042C19.6316 17.744 19.8341 19.5978 20.9196 20.6651C22.0051 21.7326 23.8552 22.4307 26.4699 22.7593C25.8767 26.1642 26.6 27.7616 28.6397 27.5514C30.6795 27.3412 31.905 26.4936 32.3165 25.0087C35.5043 25.9046 37.232 25.1548 37.4996 22.7593C37.9012 19.166 35.9635 16.2995 35.1691 16.2995C34.3746 16.2995 32.3165 16.2029 32.3165 15.1042C32.3165 14.0055 29.9123 13.3847 27.7425 13.3847C25.5727 13.3847 26.8786 11.9221 23.8991 12.5C21.9127 12.8853 20.7171 13.7533 20.3121 15.1042Z" fill="#9E4242" stroke="white" stroke-width="3" stroke-linejoin="round"/>
<path d="M31.771 26.5627C30.7118 27.2199 29.2581 28.313 28.646 29.1668C27.1159 31.3017 25.8748 32.6016 25.6032 33.9669" stroke="white" stroke-width="3" stroke-linecap="round"/>
</svg>
